%YAML 1.1
%TAG !u! tag:unity3d.com,2011:
--- !u!114 &11400000
MonoBehaviour:
  m_ObjectHideFlags: 0
  m_CorrespondingSourceObject: {fileID: 0}
  m_PrefabInstance: {fileID: 0}
  m_PrefabAsset: {fileID: 0}
  m_GameObject: {fileID: 0}
  m_Enabled: 1
  m_EditorHideFlags: 0
  m_Script: {fileID: 11500000, guid: 23caba09f5a1748499e390acd1823d37, type: 3}
  m_Name: Mouse2CharacterData
  m_EditorClassIdentifier: 
  _uuid: 21354
  _name: Mouse 2
  _description: SQUEAK!!!
  _characterType: 3
  _characterNetworkedModel: {fileID: 7681541869432701883, guid: 141cab1bca36ca246b942a723da5a44c, type: 3}
  _characterLocalModel: {fileID: 0}
